﻿Date - 07/02/2022,,,,,,,,,,
"Location - The Barn in Waynesfield, OH",,,,,,,,,,
Meet Name : Bench Crew for Red White and Blue,,,,,,,,,,
,,,,,,,,,,
LIFTER,M/F,AGE CAT,AGE,Class,BW,RAW/MULTI,PRO/AM,BENCH,TOTAL,Type
Barb Lutz,F,Open,,181,174,Raw,AM,85,85,Bench Only
Ben Hawkins,M,Youth 5-12,12,165,153,Raw,AM,105,105,Bench Only
Becky Hawkins,F,Open,,165,162,Raw,AM,145,145,Bench Only
Anna Whitney,M,Open,,181,179.8,Raw,AM,155,155,Bench Only
Adam Clark,M,Open,28,198,197,Raw,AM,305,305,Bench Only
Caleb Bingham,M,Submaster 35-39,35,275,270,Raw,AM,365,365,Bench Only
Torrey Lee,M,Open,,SHW,360,Raw,AM,465,465,Bench Only
Jason Lutz,M,Open,,308,303,Unlimited,AM,485,485,Bench Only
Adam Hawkins,M,Open,,SHW,354,Raw,AM,415,415,Bench Only
